{
    "SECRET_KEY":                               "=iao33mmlg2er3j8y&67l!7%_f#17yl9mli)wch6+bl72j(o%e",
    "ENGINE_DB":                                "django.db.backends.postgresql",
    "ENGINE_DB_FOREIGN":                        "django.db.backends.oracle",
    "ENGINE_DB_TEST":                           "django.db.backends.sqlite3",

    "NAME_DB_LOCAL":                            "recruitment_manager_local",
    "PORT_DB_LOCAL":                            "5432",
    "USER_DB_LOCAL":                            "app_dev_recruitment_manager",
    "PASSWORD_DB_LOCAL":                        "app_dev_recruitment_manager",
    "HOST_DB_LOCAL":                            "10.1.1.85",
    "AUTH_SERVICE_LOCAL":                       "https://pruebascas.emtelco.co:10001",

    "NAME_DB_TEST":                             "recruitment_manager_test",
    "PORT_DB_TEST":                             "5432",
    "USER_DB_TEST":                             "app_test_recruitment_manager",
    "PASSWORD_DB_TEST":                         "app_test_recruitment_manager",
    "HOST_DB_TEST":                             "127.0.0.1",
    "AUTH_SERVICE_TEST":                        "https://pruebascas.emtelco.co:10001",

    "NAME_DB_PRODUCTION":                       "recruitment_manager_prd",
    "PORT_DB_PRODUCTION":                       "5432",
    "USER_DB_PRODUCTION":                       "app_prd_recruitment_manager",
    "PASSWORD_DB_PRODUCTION":                   "app_prd_recruitment_manager",
    "HOST_DB_PRODUCTION":                       "10.1.1.140",
    "AUTH_SERVICE_PRODUCTION":                  "https://pruebascas.emtelco.co:10000"
}
